<define-tag pagetitle>DLA-786-1 botan1.10</define-tag>
<define-tag report_date>2017-1-16</define-tag>
<define-tag secrefs>CVE-2016-9132</define-tag>
<define-tag packages>botan1.10</define-tag>
<define-tag isvulnerable>yes</define-tag>
<define-tag fixed>yes</define-tag>
<define-tag fixed-section>no</define-tag>

#use wml::debian::security

