<define-tag pagetitle>DLA-951-1 samba</define-tag>
<define-tag report_date>2017-5-24</define-tag>
<define-tag secrefs>CVE-2017-7494</define-tag>
<define-tag packages>samba</define-tag>
<define-tag isvulnerable>yes</define-tag>
<define-tag fixed>yes</define-tag>
<define-tag fixed-section>no</define-tag>

#use wml::debian::security

