<define-tag pagetitle>DLA-1381-1 imagemagick</define-tag>
<define-tag report_date>2018-5-23</define-tag>
<define-tag secrefs>CVE-2017-18271 CVE-2017-18273 CVE-2018-11251</define-tag>
<define-tag packages>imagemagick</define-tag>
<define-tag isvulnerable>yes</define-tag>
<define-tag fixed>yes</define-tag>
<define-tag fixed-section>no</define-tag>

#use wml::debian::security

