<define-tag pagetitle>DSA-4471-1 thunderbird</define-tag>
<define-tag report_date>2019-6-24</define-tag>
<define-tag secrefs>CVE-2019-11707 CVE-2019-11708</define-tag>
<define-tag packages>thunderbird</define-tag>
<define-tag isvulnerable>yes</define-tag>
<define-tag fixed>yes</define-tag>
<define-tag fixed-section>no</define-tag>

#use wml::debian::security



</dl>
