<define-tag pagetitle>DLA-359-1 mysql-5.1</define-tag>
<define-tag report_date>2015-12-16</define-tag>
<define-tag packages></define-tag>
<define-tag secrefs>CVE-2015-0499 CVE-2015-0501 CVE-2015-0505 CVE-2015-2568 CVE-2015-2571 CVE-2015-2573 CVE-2015-4752 CVE-2015-4737 CVE-2015-2648 CVE-2015-2643 CVE-2015-2620 CVE-2015-2582 CVE-2015-4792 CVE-2015-4802 CVE-2015-4815 CVE-2015-4816 CVE-2015-4819 CVE-2015-4826 CVE-2015-4830 CVE-2015-4836 CVE-2015-4858 CVE-2015-4861 CVE-2015-4870 CVE-2015-4879 CVE-2015-4913</define-tag>
<define-tag isvulnerable>yes</define-tag>
<define-tag fixed>yes</define-tag>
<define-tag fixed-section>no</define-tag>

#use wml::debian::security

