<define-tag pagetitle>DLA-1896-1 commons-beanutils</define-tag>
<define-tag report_date>2019-08-24</define-tag>
<define-tag secrefs>CVE-2019-10086</define-tag>
<define-tag packages>commons-beanutils</define-tag>
<define-tag isvulnerable>yes</define-tag>
<define-tag fixed>yes</define-tag>
<define-tag fixed-section>no</define-tag>

#use wml::debian::security
