<define-tag pagetitle>DLA-769-1 shutter</define-tag>
<define-tag report_date>2016-12-30</define-tag>
<define-tag secrefs>CVE-2015-0854 Bug#798862</define-tag>
<define-tag packages>shutter</define-tag>
<define-tag isvulnerable>yes</define-tag>
<define-tag fixed>yes</define-tag>
<define-tag fixed-section>no</define-tag>

#use wml::debian::security

